^C:\USERS\ADMIN\DESKTOP\TEMURTURAKULOV-BOOKTESTS-A62B73EC342F\BOOKTEST\PCH.CPP
C:\USERS\ADMIN\DESKTOP\TEMURTURAKULOV-BOOKTESTS-A62B73EC342F\BOOKTEST\DEBUG\BOOKTEST.PCH
C:\USERS\ADMIN\DESKTOP\TEMURTURAKULOV-BOOKTESTS-A62B73EC342F\BOOKTEST\DEBUG\VC142.PDB
C:\USERS\ADMIN\DESKTOP\TEMURTURAKULOV-BOOKTESTS-A62B73EC342F\BOOKTEST\DEBUG\VC142.IDB
C:\USERS\ADMIN\DESKTOP\TEMURTURAKULOV-BOOKTESTS-A62B73EC342F\BOOKTEST\DEBUG\PCH.OBJ
^C:\USERS\ADMIN\DESKTOP\TEMURTURAKULOV-BOOKTESTS-A62B73EC342F\BOOKTEST\DLLMAIN.CPP
C:\USERS\ADMIN\DESKTOP\TEMURTURAKULOV-BOOKTESTS-A62B73EC342F\BOOKTEST\DEBUG\VC142.PDB
C:\USERS\ADMIN\DESKTOP\TEMURTURAKULOV-BOOKTESTS-A62B73EC342F\BOOKTEST\DEBUG\VC142.IDB
C:\USERS\ADMIN\DESKTOP\TEMURTURAKULOV-BOOKTESTS-A62B73EC342F\BOOKTEST\DEBUG\DLLMAIN.OBJ
