^C:\USERS\ADMIN\DESKTOP\TEMURTURAKULOV-BOOKTESTS-A62B73EC342F\BOOKTEST\DEBUG\DLLMAIN.OBJ|C:\USERS\ADMIN\DESKTOP\TEMURTURAKULOV-BOOKTESTS-A62B73EC342F\BOOKTEST\DEBUG\PCH.OBJ
/OUT:"C:\USERS\ADMIN\DESKTOP\TEMURTURAKULOV-BOOKTESTS-A62B73EC342F\DEBUG\BOOKTEST.DLL" /INCREMENTAL /NOLOGO KERNEL32.LIB USER32.LIB GDI32.LIB WINSPOOL.LIB COMDLG32.LIB ADVAPI32.LIB SHELL32.LIB OLE32.LIB OLEAUT32.LIB UUID.LIB ODBC32.LIB ODBCCP32.LIB /MANIFEST /MANIFESTUAC:NO /manifest:embed /DEBUG:FASTLINK /PDB:"C:\USERS\ADMIN\DESKTOP\TEMURTURAKULOV-BOOKTESTS-A62B73EC342F\DEBUG\BOOKTEST.PDB" /SUBSYSTEM:WINDOWS /TLBID:1 /DYNAMICBASE /NXCOMPAT /IMPLIB:"C:\USERS\ADMIN\DESKTOP\TEMURTURAKULOV-BOOKTESTS-A62B73EC342F\DEBUG\BOOKTEST.LIB" /MACHINE:X86 /DLL DEBUG\DLLMAIN.OBJ
DEBUG\PCH.OBJ
