^C:\USERS\ADMIN\DESKTOP\TEMURTURAKULOV-BOOKTESTS-A62B73EC342F\SETI\DEBUG\.NETFRAMEWORK,VERSION=V4.7.2.ASSEMBLYATTRIBUTES.OBJ|C:\USERS\ADMIN\DESKTOP\TEMURTURAKULOV-BOOKTESTS-A62B73EC342F\SETI\DEBUG\ANSWERS.OBJ|C:\USERS\ADMIN\DESKTOP\TEMURTURAKULOV-BOOKTESTS-A62B73EC342F\SETI\DEBUG\AUTHFORM2.OBJ|C:\USERS\ADMIN\DESKTOP\TEMURTURAKULOV-BOOKTESTS-A62B73EC342F\SETI\DEBUG\BOOKREPOSITORY.OBJ|C:\USERS\ADMIN\DESKTOP\TEMURTURAKULOV-BOOKTESTS-A62B73EC342F\SETI\DEBUG\MYFORM.OBJ|C:\USERS\ADMIN\DESKTOP\TEMURTURAKULOV-BOOKTESTS-A62B73EC342F\SETI\DEBUG\PREPODFORM.OBJ|C:\USERS\ADMIN\DESKTOP\TEMURTURAKULOV-BOOKTESTS-A62B73EC342F\SETI\DEBUG\READLECTURES.OBJ|C:\USERS\ADMIN\DESKTOP\TEMURTURAKULOV-BOOKTESTS-A62B73EC342F\SETI\DEBUG\STUDENTFORM.OBJ|C:\USERS\ADMIN\DESKTOP\TEMURTURAKULOV-BOOKTESTS-A62B73EC342F\SETI\DEBUG\TESTFORM.OBJ|C:\USERS\ADMIN\DESKTOP\TEMURTURAKULOV-BOOKTESTS-A62B73EC342F\SETI\DEBUG\TESTQUESTIONS.OBJ|C:\USERS\ADMIN\DESKTOP\TEMURTURAKULOV-BOOKTESTS-A62B73EC342F\SETI\DEBUG\USER.OBJ|C:\USERS\ADMIN\DESKTOP\TEMURTURAKULOV-BOOKTESTS-A62B73EC342F\SETI\DEBUG\USERTYPE.OBJ
C:\USERS\ADMIN\DESKTOP\TEMURTURAKULOV-BOOKTESTS-A62B73EC342F\SETI\DEBUG\ANSWERS.OBJ
C:\USERS\ADMIN\DESKTOP\TEMURTURAKULOV-BOOKTESTS-A62B73EC342F\SETI\DEBUG\AUTHFORM2.OBJ
C:\USERS\ADMIN\DESKTOP\TEMURTURAKULOV-BOOKTESTS-A62B73EC342F\SETI\DEBUG\BOOKREPOSITORY.OBJ
C:\USERS\ADMIN\DESKTOP\TEMURTURAKULOV-BOOKTESTS-A62B73EC342F\SETI\DEBUG\MYFORM.OBJ
C:\USERS\ADMIN\DESKTOP\TEMURTURAKULOV-BOOKTESTS-A62B73EC342F\SETI\DEBUG\PREPODFORM.OBJ
C:\USERS\ADMIN\DESKTOP\TEMURTURAKULOV-BOOKTESTS-A62B73EC342F\SETI\DEBUG\READLECTURES.OBJ
C:\USERS\ADMIN\DESKTOP\TEMURTURAKULOV-BOOKTESTS-A62B73EC342F\SETI\DEBUG\STUDENTFORM.OBJ
C:\USERS\ADMIN\DESKTOP\TEMURTURAKULOV-BOOKTESTS-A62B73EC342F\SETI\DEBUG\TESTFORM.OBJ
C:\USERS\ADMIN\DESKTOP\TEMURTURAKULOV-BOOKTESTS-A62B73EC342F\SETI\DEBUG\TESTQUESTIONS.OBJ
C:\USERS\ADMIN\DESKTOP\TEMURTURAKULOV-BOOKTESTS-A62B73EC342F\SETI\DEBUG\USER.OBJ
C:\USERS\ADMIN\DESKTOP\TEMURTURAKULOV-BOOKTESTS-A62B73EC342F\SETI\DEBUG\USERTYPE.OBJ
C:\USERS\ADMIN\DESKTOP\TEMURTURAKULOV-BOOKTESTS-A62B73EC342F\SETI\DEBUG\.NETFRAMEWORK,VERSION=V4.7.2.ASSEMBLYATTRIBUTES.OBJ
C:\WINDOWS\GLOBALIZATION\SORTING\SORTDEFAULT.NLS
C:\PROGRAM FILES (X86)\MICROSOFT VISUAL STUDIO\2019\COMMUNITY\VC\TOOLS\MSVC\14.28.29910\BIN\HOSTX86\X86\1049\LINKUI.DLL
C:\PROGRAM FILES (X86)\MICROSOFT VISUAL STUDIO\2019\COMMUNITY\VC\TOOLS\MSVC\14.28.29910\BIN\HOSTX86\X86\LINK.EXE
C:\WINDOWS\SYSTEM32\TZRES.DLL
C:\WINDOWS\MICROSOFT.NET\FRAMEWORK\V2.0.50727\MSCORWKS.DLL
C:\WINDOWS\MICROSOFT.NET\FRAMEWORK\V4.0.30319\CLR.DLL
C:\PROGRAM FILES (X86)\MICROSOFT VISUAL STUDIO\2019\COMMUNITY\VC\TOOLS\MSVC\14.28.29910\BIN\HOSTX86\X86\LINK.EXE.CONFIG
C:\PROGRAM FILES (X86)\MICROSOFT VISUAL STUDIO\2019\COMMUNITY\VC\TOOLS\MSVC\14.28.29910\LIB\X86\MSVCPRTD.LIB
C:\PROGRAM FILES (X86)\MICROSOFT VISUAL STUDIO\2019\COMMUNITY\VC\TOOLS\MSVC\14.28.29910\LIB\X86\MSVCRTD.LIB
C:\PROGRAM FILES (X86)\MICROSOFT VISUAL STUDIO\2019\COMMUNITY\VC\TOOLS\MSVC\14.28.29910\LIB\X86\OLDNAMES.LIB
C:\PROGRAM FILES (X86)\MICROSOFT VISUAL STUDIO\2019\COMMUNITY\VC\TOOLS\MSVC\14.28.29910\LIB\X86\MSVCMRTD.LIB
C:\PROGRAM FILES (X86)\WINDOWS KITS\NETFXSDK\4.8\LIB\UM\X86\MSCOREE.LIB
C:\PROGRAM FILES (X86)\WINDOWS KITS\10\LIB\10.0.19041.0\UM\X86\UUID.LIB
C:\PROGRAM FILES (X86)\WINDOWS KITS\10\LIB\10.0.19041.0\UM\X86\KERNEL32.LIB
C:\PROGRAM FILES (X86)\WINDOWS KITS\10\LIB\10.0.19041.0\UCRT\X86\UCRTD.LIB
C:\PROGRAM FILES (X86)\MICROSOFT VISUAL STUDIO\2019\COMMUNITY\VC\TOOLS\MSVC\14.28.29910\LIB\X86\VCRUNTIMED.LIB
C:\PROGRAM FILES (X86)\WINDOWS KITS\10\BIN\10.0.19041.0\X86\RC.EXE
C:\PROGRAM FILES (X86)\MICROSOFT VISUAL STUDIO\2019\COMMUNITY\VC\TOOLS\MSVC\14.28.29910\BIN\HOSTX86\X86\CVTRES.EXE
C:\PROGRAM FILES (X86)\MICROSOFT VISUAL STUDIO\2019\COMMUNITY\VC\TOOLS\MSVC\14.28.29910\BIN\HOSTX86\X86\MSPDBSRV.EXE
C:\USERS\ADMIN\DESKTOP\TEMURTURAKULOV-BOOKTESTS-A62B73EC342F\SETI\DEBUG\SETI.AUTHFORM2.RESOURCES
C:\USERS\ADMIN\DESKTOP\TEMURTURAKULOV-BOOKTESTS-A62B73EC342F\SETI\DEBUG\SETI.MYFORM.RESOURCES
C:\USERS\ADMIN\DESKTOP\TEMURTURAKULOV-BOOKTESTS-A62B73EC342F\SETI\DEBUG\SETI.PREPODFORM.RESOURCES
C:\USERS\ADMIN\DESKTOP\TEMURTURAKULOV-BOOKTESTS-A62B73EC342F\SETI\DEBUG\SETI.READLECTURES.RESOURCES
C:\USERS\ADMIN\DESKTOP\TEMURTURAKULOV-BOOKTESTS-A62B73EC342F\SETI\DEBUG\SETI.STUDENTFORM.RESOURCES
C:\USERS\ADMIN\DESKTOP\TEMURTURAKULOV-BOOKTESTS-A62B73EC342F\SETI\DEBUG\SETI.TESTFORM.RESOURCES
